^C:\USERS\72VLA\SOURCE\REPOS\POKO\POKO\X64\DEBUG\HELPERS.OBJ|C:\USERS\72VLA\SOURCE\REPOS\POKO\POKO\X64\DEBUG\POKO.OBJ
C:\USERS\72VLA\SOURCE\REPOS\POKO\X64\DEBUG\POKO.EXE
C:\USERS\72VLA\SOURCE\REPOS\POKO\POKO\X64\DEBUG\POKO.ILK
C:\USERS\72VLA\SOURCE\REPOS\POKO\X64\DEBUG\POKO.PDB
